<?xml version="1.0" encoding="UTF-8"?>
<svg width="74px" height="65px" viewBox="0 0 74 65" version="1.1" xmlns="http://www.w3.org/2000/svg" xmlns:xlink="http://www.w3.org/1999/xlink">
    <!-- Generator: Sketch 52.2 (67145) - http://www.bohemiancoding.com/sketch -->
    <title>sunset</title>
    <desc>Created with Sketch.</desc>
    <g id="Page-1" stroke="none" stroke-width="1" fill="none" fill-rule="evenodd">
        <g id="Home_3_alternative_conference" transform="translate(-1398.000000, -2123.000000)" fill="#F2296F">
            <g id="Group-21" transform="translate(379.000000, 2011.000000)">
                <g id="sunset" transform="translate(1019.000000, 112.000000)">
                    <path d="M72.2302941,42.8444824 L57.4855412,42.8444824 C56.8387529,31.3907176 47.0294118,22.6299412 35.5756471,23.2767294 C25.0253059,23.8724353 16.6036,32.2941412 16.0078941,42.8444824 L1.26558824,42.8444824 C0.589894118,42.8444824 0.0420588235,43.3923176 0.0420588235,44.0680118 C0.0420588235,44.7437059 0.589894118,45.2915412 1.26558824,45.2915412 L72.2302941,45.2915412 C72.9059882,45.2915412 73.4538235,44.7437059 73.4538235,44.0680118 C73.4538235,43.3923176 72.9059882,42.8444824 72.2302941,42.8444824 Z M18.4549529,42.8444824 C19.1026588,33.2140824 27.0958235,25.7292941 36.7479412,25.7150706 C46.3991412,25.7306706 54.3909294,33.2151529 55.0384824,42.8444824 L18.4549529,42.8444824 Z" id="Shape" fill-rule="nonzero"></path>
                    <path d="M56.3244118,47.7386 L15.9479412,47.7386 C15.2722471,47.7386 14.7244118,48.2864353 14.7244118,48.9621294 C14.7244118,49.6378235 15.2722471,50.1856588 15.9479412,50.1856588 L56.3244118,50.1856588 C57.0001059,50.1856588 57.5479412,49.6378235 57.5479412,48.9621294 C57.5479412,48.2864353 57.0001059,47.7386 56.3244118,47.7386 Z" id="Path"></path>
                    <path d="M52.6538235,52.6327176 L19.6185294,52.6327176 C18.9428353,52.6327176 18.395,53.1805529 18.395,53.8562471 C18.395,54.5319412 18.9428353,55.0797765 19.6185294,55.0797765 L52.6538235,55.0797765 C53.3295176,55.0797765 53.8773529,54.5319412 53.8773529,53.8562471 C53.8773529,53.1805529 53.3295176,52.6327176 52.6538235,52.6327176 Z" id="Path"></path>
                    <path d="M48.9832353,57.5268353 L23.2891176,57.5268353 C22.6134235,57.5268353 22.0655882,58.0746706 22.0655882,58.7503647 C22.0655882,59.4260588 22.6134235,59.9738941 23.2891176,59.9738941 L48.9832353,59.9738941 C49.6589294,59.9738941 50.2067647,59.4260588 50.2067647,58.7503647 C50.2067647,58.0746706 49.6589294,57.5268353 48.9832353,57.5268353 Z" id="Path"></path>
                    <path d="M44.0891176,62.4209529 L28.1832353,62.4209529 C27.5075412,62.4209529 26.9597059,62.9687882 26.9597059,63.6444824 C26.9597059,64.3201765 27.5075412,64.8680118 28.1832353,64.8680118 L44.0891176,64.8680118 C44.7648118,64.8680118 45.3126471,64.3201765 45.3126471,63.6444824 C45.3126471,62.9687882 44.7648118,62.4209529 44.0891176,62.4209529 Z" id="Path"></path>
                    <path d="M13.5008824,39.1738941 L1.26558824,39.1738941 C0.589894118,39.1738941 0.0420588235,39.7217294 0.0420588235,40.3974235 C0.0420588235,41.0731176 0.589894118,41.6209529 1.26558824,41.6209529 L13.5008824,41.6209529 C14.1765765,41.6209529 14.7244118,41.0731176 14.7244118,40.3974235 C14.7244118,39.7217294 14.1765765,39.1738941 13.5008824,39.1738941 Z" id="Path"></path>
                    <path d="M15.2262118,30.7142588 C15.1988353,30.7030941 15.171,30.693 15.1428588,30.6838235 L1.68403529,25.7897059 C1.05789412,25.5355176 0.344270588,25.8371176 0.0902352941,26.4632588 C-0.163952941,27.0894 0.137647059,27.8030235 0.763788235,28.0570588 C0.791164706,28.0682235 0.819,28.0783176 0.847141176,28.0874941 L14.3059647,32.9816118 C14.9321059,33.2358 15.6457294,32.9342 15.8997647,32.3080588 C16.1539529,31.6819176 15.8523529,30.9682941 15.2262118,30.7142588 Z" id="Path"></path>
                    <path d="M28.0841294,17.8918235 L24.4135412,9.32711765 C24.1384,8.70984706 23.4151412,8.43256471 22.7978706,8.70770588 C22.1931412,8.97734118 21.9124941,9.67903529 22.1646941,10.2912588 L25.8352824,18.8559647 C26.0281412,19.3057647 26.4702941,19.5974235 26.9597059,19.5974235 C27.1254941,19.5981882 27.2897529,19.5643882 27.4417765,19.4983176 C28.0627176,19.2320471 28.3502471,18.5129176 28.0841294,17.8918235 Z" id="Path"></path>
                    <path d="M49.4653059,8.68476471 C48.8443647,8.41864706 48.1250824,8.70617647 47.8588118,9.32711765 L44.1882235,17.8918235 C43.9221059,18.5127647 44.2096353,19.2320471 44.8305765,19.4983176 C44.9827529,19.5643882 45.1468588,19.5980353 45.3126471,19.5974235 C45.8020588,19.5974235 46.2442118,19.3057647 46.4370706,18.8559647 L50.1076588,10.2912588 C50.3737765,9.67031765 50.0862471,8.95103529 49.4653059,8.68476471 Z" id="Path"></path>
                    <path d="M73.3033294,23.9054706 C72.9797059,23.3122118 72.2362588,23.0936588 71.643,23.4172824 L58.1841765,30.7584588 C57.5909176,31.0819294 57.3720588,31.8250706 57.6955294,32.4183294 C57.9101059,32.812 58.3230471,33.0568588 58.7714706,33.0562471 C58.9758,33.0564 59.1770706,33.0050118 59.3563176,32.9069765 L72.8151412,25.5658 C73.4084,25.2421765 73.6269529,24.4988824 73.3033294,23.9054706 Z" id="Path"></path>
                    <path d="M21.7070941,23.6265059 L9.4718,11.3912118 C8.98575294,10.9216824 8.21125882,10.9351412 7.74172941,11.4211882 C7.28382353,11.8953059 7.28382353,12.6470118 7.74172941,13.1212824 L19.9770235,25.3565765 C20.4630706,25.8259529 21.2377176,25.8124941 21.7070941,25.3264471 C22.165,24.8523294 22.165,24.1006235 21.7070941,23.6265059 Z" id="Path"></path>
                    <path d="M36.7479412,0.0209529412 C36.0722471,0.0209529412 35.5244118,0.568788235 35.5244118,1.24448235 L35.5244118,17.1503647 C35.5244118,17.8260588 36.0722471,18.3738941 36.7479412,18.3738941 C37.4236353,18.3738941 37.9714706,17.8260588 37.9714706,17.1503647 L37.9714706,1.24448235 C37.9714706,0.568788235 37.4236353,0.0209529412 36.7479412,0.0209529412 Z" id="Path"></path>
                    <path d="M65.7541529,11.3912118 C65.2763647,10.9135765 64.5018706,10.9135765 64.0240824,11.3912118 L51.7887882,23.6265059 C51.3027412,24.0960353 51.2892824,24.8705294 51.7588118,25.3565765 C52.2283412,25.8426235 53.0028353,25.8560824 53.4888824,25.3865529 C53.4991294,25.3767647 53.5090706,25.3666706 53.5188588,25.3565765 L65.7541529,13.1212824 C66.2317882,12.6434941 66.2317882,11.869 65.7541529,11.3912118 Z" id="Path"></path>
                    <path d="M72.2302941,39.1738941 L59.995,39.1738941 C59.3193059,39.1738941 58.7714706,39.7217294 58.7714706,40.3974235 C58.7714706,41.0731176 59.3193059,41.6209529 59.995,41.6209529 L72.2302941,41.6209529 C72.9059882,41.6209529 73.4538235,41.0731176 73.4538235,40.3974235 C73.4538235,39.7217294 72.9059882,39.1738941 72.2302941,39.1738941 Z" id="Path"></path>
                </g>
            </g>
        </g>
    </g>
</svg>