<?xml version="1.0" encoding="utf-8"?>
<!-- Generator: Adobe Illustrator 16.0.0, SVG Export Plug-In . SVG Version: 6.00 Build 0)  -->
<!DOCTYPE svg PUBLIC "-//W3C//DTD SVG 1.1//EN" "http://www.w3.org/Graphics/SVG/1.1/DTD/svg11.dtd">
<svg version="1.1" id="Layer_1" xmlns="http://www.w3.org/2000/svg" xmlns:xlink="http://www.w3.org/1999/xlink" x="0px" y="0px"
	 width="171.556px" height="83.269px" viewBox="0 0 171.556 83.269" enable-background="new 0 0 171.556 83.269"
	 xml:space="preserve">
<g>
	<g>
		<path fill="#42549A" d="M49.83,13.921h-2.969l-2.493-3.686l-1.193,1.328v2.357h-2.479v-9.5h2.479V8.54l3.564-4.119h2.874
			l-3.524,3.916L49.83,13.921z"/>
		<path fill="#42549A" d="M57.826,13.921l-0.65-1.68h-4.106l-0.664,1.68h-2.548l4.079-9.5h2.548l3.984,9.5H57.826z M53.814,10.343
			h2.629l-1.301-3.387L53.814,10.343z"/>
		<path fill="#42549A" d="M67.027,13.921l-1.382-2.629H65.59h-1.789v2.629h-2.479v-9.5h4.269c1.256,0,2.229,0.291,2.921,0.873
			c0.691,0.584,1.037,1.404,1.037,2.461c0,0.713-0.145,1.33-0.434,1.85c-0.29,0.52-0.71,0.924-1.261,1.213l1.979,3.104H67.027z
			 M63.801,9.313h1.803c0.506,0,0.896-0.127,1.173-0.379c0.275-0.254,0.413-0.619,0.413-1.098c0-0.461-0.138-0.816-0.413-1.064
			C66.5,6.524,66.11,6.399,65.604,6.399h-1.803V9.313z"/>
		<path fill="#42549A" d="M78.114,13.921l-0.65-1.68h-4.106l-0.664,1.68h-2.548l4.079-9.5h2.548l3.984,9.5H78.114z M74.102,10.343
			h2.629L75.43,6.956L74.102,10.343z"/>
		<path fill="#42549A" d="M92.507,4.421h2.548l-3.212,9.5h-2.548l-1.803-6.465l-1.829,6.465h-2.548l-3.199-9.5h2.67l1.87,6.939
			l1.871-6.939h2.426l1.897,6.939L92.507,4.421z"/>
		<path fill="#42549A" d="M102.184,13.921l-0.65-1.68h-4.106l-0.664,1.68h-2.548l4.079-9.5h2.548l3.984,9.5H102.184z M98.172,10.343
			h2.629L99.5,6.956L98.172,10.343z"/>
		<path fill="#42549A" d="M112.172,4.421h2.305v9.5h-2.169l-4.31-5.678v5.678h-2.317v-9.5h2.182l4.323,5.719L112.172,4.421z"/>
		<path fill="#42549A" d="M122.622,9.069h2.142v3.781c-0.506,0.371-1.127,0.672-1.863,0.902c-0.736,0.229-1.435,0.344-2.094,0.344
			c-0.958,0-1.823-0.213-2.596-0.643s-1.381-1.02-1.823-1.77s-0.664-1.59-0.664-2.52c0-0.922,0.229-1.756,0.685-2.502
			c0.456-0.744,1.084-1.33,1.884-1.754c0.8-0.426,1.692-0.637,2.677-0.637c0.705,0,1.409,0.129,2.114,0.385
			c0.705,0.258,1.301,0.604,1.789,1.037l-1.409,1.734c-0.344-0.324-0.739-0.582-1.187-0.771s-0.888-0.285-1.321-0.285
			c-0.506,0-0.962,0.123-1.369,0.367c-0.406,0.242-0.727,0.578-0.962,1.002c-0.235,0.426-0.353,0.898-0.353,1.424
			c0,0.533,0.117,1.014,0.353,1.443c0.235,0.428,0.561,0.766,0.976,1.01c0.416,0.244,0.877,0.365,1.383,0.365
			c0.479,0,1.025-0.154,1.64-0.461V9.069z"/>
	</g>
	<g>
		<g>
			<g>
				<g>
					<path fill="#F2AEB8" d="M76.859,56.54H87.72l2.484,26.729h-7.295l-0.439-4.607h-9.578l-2.243,4.607h-7.454L76.859,56.54z
						 M82.149,73.491L81.268,61.87l-5.771,11.621H82.149z"/>
				</g>
			</g>
			<g>
				<g>
					<path fill="#F2AEB8" d="M96.738,56.54h13.504c3.846,0,5.492,0.361,6.814,1.562c1.439,1.283,1.682,3.166,0.92,6.771
						c-0.84,3.887-1.684,5.691-3.246,6.734c-0.801,0.561-1.482,0.801-3.486,1.281l-0.08,0.281c3.285,0.16,4.447,1.803,3.727,5.209
						l-1.002,4.889h-7.293l0.721-3.566c0.562-2.605,0-3.527-2.244-3.527h-5.328l-1.484,7.094h-7.172L96.738,56.54z M106.716,70.124
						c2.363,0,2.965-0.641,3.725-4.246c0.562-2.646,0.162-3.205-2.484-3.205h-5.328l-1.604,7.451H106.716z"/>
				</g>
			</g>
			<g>
				<g>
					<path fill="#F2AEB8" d="M122.386,56.54h12.061l1.885,11.262c0.199,1.521,0.561,2.965,0.762,4.527l0.6,4.529h0.281
						c1.082-6.574,1.082-6.574,1.762-9.619l2.246-10.699h7.092l-5.65,26.729h-12.141l-1.844-11.262
						c-0.48-3.086-0.924-6.17-1.322-9.295h-0.32c-1.162,6.932-1.162,6.932-1.805,9.857l-2.244,10.699h-7.012L122.386,56.54z"/>
				</g>
			</g>
			<g>
				<g>
					<path fill="#F2AEB8" d="M158.212,56.54h10.859l2.484,26.729h-7.293l-0.439-4.607h-9.578l-2.244,4.607h-7.453L158.212,56.54z
						 M163.501,73.491l-0.883-11.621l-5.768,11.621H163.501z"/>
				</g>
			</g>
			<g>
				<g>
					<path fill="#F2AEB8" d="M31.653,56.54h7.174l-0.16,10.297c-0.079,3.447-0.12,5.65-0.2,6.693l-0.16,3.607h0.281
						c1.481-3.445,3.085-6.895,4.647-10.301l4.729-10.297h7.373l0.321,10.297c0.079,3.447,0.12,5.65,0.079,6.693
						c0.041,0.682,0,1.883,0.041,3.607h0.24c1.322-3.406,2.725-6.854,4.168-10.301l4.247-10.297h7.173L59.985,83.269H49.688
						l-0.08-8.375l-0.081-4.207c0-0.162,0.04-0.922,0.04-2.084c0-0.361,0.041-1.002,0.041-2.084h-0.28
						c-1.123,2.766-2.365,5.568-3.648,8.375l-3.766,8.375h-10.18L31.653,56.54z"/>
				</g>
			</g>
		</g>
	</g>
	<g>
		<g>
			<g>
				<path fill="#42549A" d="M5.149,30.351c-0.366,0.662-0.676,1.443-0.941,2.328h7.529c0.535-0.553,1.37-0.811,2.789-0.896h10.877
					l0.282-1.432H5.149z"/>
			</g>
			<g>
				<path fill="#42549A" d="M11.151,33.692H3.937c-0.046,0.193-0.096,0.377-0.138,0.582c-0.132,0.631-0.232,1.209-0.302,1.746h7.538
					c-0.198-0.357-0.243-0.922-0.063-1.666C11.023,34.112,11.083,33.894,11.151,33.692z"/>
			</g>
			<g>
				<path fill="#42549A" d="M25.887,29.337l0.599-3.023H15.337v0.002c-4.098,0.082-6.184,0.518-7.972,1.627
					c-0.581,0.355-1.088,0.824-1.538,1.395H25.887z"/>
			</g>
			<g>
				<path fill="#42549A" d="M3.646,39.364h20.635c-0.234-0.35-0.539-0.65-0.927-0.924c-1.227-0.805-2.494-1.131-6.14-1.406H3.405
					C3.356,37.962,3.434,38.728,3.646,39.364z"/>
			</g>
			<g>
				<path fill="#42549A" d="M17.366,43.72c0.102,0.346,0.066,0.803-0.062,1.412c-0.201,1.082-0.562,1.684-1.202,2.125
					c-0.682,0.48-1.081,0.561-3.407,0.561c-0.611,0-1.119-0.002-1.547-0.008H1.705L0,53.429h11.147v-0.002
					c0.117,0,0.225,0.002,0.346,0.002c5.29,0,7.574-0.48,9.618-2.006c1.642-1.201,2.563-3.043,3.325-6.65
					c0.08-0.377,0.142-0.719,0.199-1.053H17.366z"/>
			</g>
			<g>
				<path fill="#42549A" d="M6.725,41.847c1.281,0.32,3.446,0.562,7.733,0.801c0.271,0.018,0.514,0.037,0.742,0.057h9.576
					c0.105-0.945,0.082-1.701-0.072-2.326H4.179C4.724,41.073,5.56,41.538,6.725,41.847z"/>
			</g>
		</g>
		<g>
			<g>
				<polygon fill="#42549A" points="31.125,30.351 30.633,32.679 37.809,32.679 37.87,32.39 50.053,32.39 50.482,30.351 				"/>
			</g>
			<g>
				<polygon fill="#42549A" points="50.697,29.337 51.294,26.499 31.939,26.499 31.339,29.337 				"/>
			</g>
			<g>
				<polygon fill="#42549A" points="29.713,37.034 29.221,39.364 47.773,39.364 48.249,37.198 36.868,37.198 36.902,37.034 				"/>
			</g>
			<g>
				<polygon fill="#42549A" points="29.005,40.378 28.513,42.704 35.667,42.704 35.786,42.128 47.167,42.128 47.551,40.378 				"/>
			</g>
			<g>
				<polygon fill="#42549A" points="35.455,43.72 28.299,43.72 26.288,53.229 45.885,53.229 47.127,47.337 34.704,47.337 				"/>
			</g>
			<g>
				<polygon fill="#42549A" points="30.418,33.692 29.927,36.021 37.113,36.021 37.599,33.692 				"/>
			</g>
		</g>
		<g>
			<g>
				<polygon fill="#42549A" points="61.354,26.499 54.182,26.499 53.581,29.337 60.753,29.337 				"/>
			</g>
			<g>
				<polygon fill="#42549A" points="59.12,37.034 51.954,37.034 51.462,39.364 58.627,39.364 				"/>
			</g>
			<g>
				<polygon fill="#42549A" points="58.411,40.378 51.247,40.378 50.755,42.704 57.917,42.704 				"/>
			</g>
			<g>
				<polygon fill="#42549A" points="59.828,33.692 52.661,33.692 52.168,36.021 59.335,36.021 				"/>
			</g>
			<g>
				<polygon fill="#42549A" points="60.537,30.351 53.367,30.351 52.875,32.679 60.044,32.679 				"/>
			</g>
			<g>
				<polygon fill="#42549A" points="79.792,40.378 72.533,40.378 71.344,42.704 78.635,42.704 				"/>
			</g>
			<g>
				<polygon fill="#42549A" points="83.11,33.692 75.95,33.692 74.761,36.021 81.955,36.021 				"/>
			</g>
			<g>
				<polygon fill="#42549A" points="81.451,37.034 74.242,37.034 73.052,39.364 80.294,39.364 				"/>
			</g>
			<g>
				<polygon fill="#42549A" points="90.488,26.499 79.63,26.499 78.179,29.337 90.753,29.337 				"/>
			</g>
			<g>
				<polygon fill="#42549A" points="84.862,42.704 91.996,42.704 91.779,40.378 84.685,40.378 				"/>
			</g>
			<g>
				<polygon fill="#42549A" points="84.608,39.364 91.685,39.364 91.466,37.034 84.431,37.034 				"/>
			</g>
			<g>
				<polygon fill="#42549A" points="92.089,43.72 70.825,43.72 69.099,47.095 56.987,47.095 57.702,43.72 50.542,43.72 
					48.53,53.229 73.417,53.229 75.661,48.62 85.239,48.62 85.68,53.229 92.972,53.229 				"/>
			</g>
			<g>
				<polygon fill="#42549A" points="84.036,31.829 84.102,32.679 91.062,32.679 90.845,30.351 77.66,30.351 76.469,32.679 
					83.615,32.679 				"/>
			</g>
			<g>
				<polygon fill="#42549A" points="84.354,36.021 91.373,36.021 91.156,33.692 84.178,33.692 				"/>
			</g>
		</g>
		<g>
			<g>
				<polygon fill="#42549A" points="105.857,30.351 98.693,30.351 98.199,32.679 105.361,32.679 				"/>
			</g>
			<g>
				<polygon fill="#42549A" points="105.144,33.692 97.988,33.692 97.494,36.021 104.646,36.021 				"/>
			</g>
			<g>
				<polygon fill="#42549A" points="114.554,37.034 97.279,37.034 96.789,39.364 112.39,39.364 				"/>
			</g>
			<g>
				<polygon fill="#42549A" points="112.527,40.378 96.572,40.378 96.08,42.704 103.23,42.704 103.232,42.69 105.437,42.69 
					105.447,42.704 113.785,42.704 				"/>
			</g>
			<g>
				<polygon fill="#42549A" points="124.353,26.499 115.697,26.499 113.173,29.337 121.712,29.337 				"/>
			</g>
			<g>
				<polygon fill="#42549A" points="117.664,33.692 109.298,33.692 107.228,36.021 115.498,36.021 				"/>
			</g>
			<g>
				<polygon fill="#42549A" points="93.855,53.229 101.029,53.229 103.017,43.72 95.865,43.72 				"/>
			</g>
			<g>
				<polygon fill="#42549A" points="106.679,26.499 99.505,26.499 98.908,29.337 106.074,29.337 				"/>
			</g>
			<g>
				<polygon fill="#42549A" points="120.769,30.351 112.271,30.351 110.201,32.679 118.605,32.679 				"/>
			</g>
			<g>
				<path fill="#42549A" d="M123.25,32.478h7.529c0.533-0.553,1.369-0.812,2.789-0.895h10.875l0.285-1.432h-20.537
					C123.824,30.813,123.515,31.591,123.25,32.478z"/>
			</g>
			<g>
				<path fill="#42549A" d="M134.378,26.112v0.002c-4.1,0.082-6.186,0.518-7.973,1.627c-0.582,0.355-1.088,0.826-1.537,1.395h20.059
					l0.6-3.023H134.378z"/>
			</g>
			<g>
				<path fill="#42549A" d="M130.193,33.491h-7.215c-0.047,0.195-0.096,0.377-0.139,0.58c-0.131,0.633-0.232,1.213-0.301,1.75h7.537
					c-0.199-0.357-0.242-0.922-0.062-1.67C130.062,33.911,130.125,33.694,130.193,33.491z"/>
			</g>
			<g>
				<path fill="#42549A" d="M122.685,39.163h20.637c-0.234-0.35-0.539-0.652-0.926-0.924c-1.227-0.803-2.496-1.133-6.141-1.402
					h-13.811C122.398,37.761,122.474,38.528,122.685,39.163z"/>
			</g>
			<g>
				<path fill="#42549A" d="M136.345,44.933c-0.201,1.082-0.562,1.682-1.203,2.123c-0.682,0.48-1.084,0.561-3.406,0.561
					c-0.611,0-1.121,0-1.549-0.006h-13.756l-2.102-3.891h-8.379l4.736,9.51h2.244h6.531h10.725v-0.006
					c0.117,0.002,0.227,0.006,0.348,0.006c5.289,0,7.572-0.484,9.615-2.006c1.645-1.201,2.564-3.045,3.328-6.652
					c0.078-0.377,0.141-0.717,0.197-1.053h-7.27C136.509,43.866,136.474,44.321,136.345,44.933z"/>
			</g>
			<g>
				<path fill="#42549A" d="M123.218,40.177c0.545,0.697,1.383,1.16,2.547,1.471c1.281,0.32,3.447,0.559,7.732,0.801
					c0.271,0.014,0.516,0.035,0.744,0.057h9.576c0.104-0.945,0.082-1.705-0.072-2.328H123.218z"/>
			</g>
		</g>
		<g>
			<g>
				<polygon fill="#42549A" points="155.656,40.378 148.398,40.378 147.207,42.704 154.5,42.704 				"/>
			</g>
			<g>
				<polygon fill="#42549A" points="151.814,33.692 150.625,36.021 157.818,36.021 158.974,33.692 				"/>
			</g>
			<g>
				<polygon fill="#42549A" points="157.314,37.034 150.105,37.034 148.916,39.364 156.158,39.364 				"/>
			</g>
			<g>
				<polygon fill="#42549A" points="166.617,29.337 166.353,26.499 155.492,26.499 154.041,29.337 				"/>
			</g>
			<g>
				<polygon fill="#42549A" points="167.642,40.378 160.548,40.378 160.726,42.704 167.859,42.704 				"/>
			</g>
			<g>
				<polygon fill="#42549A" points="146.687,43.72 141.828,53.229 149.281,53.229 151.525,48.62 161.103,48.62 161.544,53.229 
					168.835,53.229 167.953,43.72 				"/>
			</g>
			<g>
				<polygon fill="#42549A" points="153.523,30.351 152.332,32.679 159.478,32.679 159.9,31.829 159.966,32.679 166.927,32.679 
					166.708,30.351 				"/>
			</g>
			<g>
				<polygon fill="#42549A" points="160.296,37.034 160.472,39.364 167.548,39.364 167.332,37.034 				"/>
			</g>
			<g>
				<polygon fill="#42549A" points="160.041,33.692 160.218,36.021 167.238,36.021 167.021,33.692 				"/>
			</g>
		</g>
	</g>
	<g>
		<g>
			<path fill-rule="evenodd" clip-rule="evenodd" fill="#42549A" d="M7.324,6.845c0-2.09,0-4.178,0.001-6.266
				c0-0.453,0.125-0.578,0.57-0.58c0.535,0,1.071-0.002,1.607,0.002c0.371,0.002,0.516,0.146,0.516,0.521
				c0.002,1.164,0.002,2.328,0.002,3.492c0,0.084-0.007,0.168,0.005,0.248c0.042,0.301,0.276,0.396,0.509,0.201
				c0.539-0.451,1.136-0.791,1.836-0.916c1.429-0.252,2.658,0.18,3.597,1.248c1.61,1.832,1.847,3.938,1.018,6.186
				c-0.165,0.445-0.397,0.873-0.65,1.279c-0.687,1.094-1.725,1.598-2.984,1.697c-1.037,0.08-1.969-0.191-2.811-0.807
				c-0.446-0.326-0.534-0.285-0.699,0.236c-0.068,0.221-0.221,0.34-0.45,0.34c-0.535,0.004-1.071,0.01-1.607,0
				c-0.319-0.008-0.456-0.189-0.456-0.562C7.325,11.056,7.325,8.95,7.324,6.845C7.325,6.845,7.325,6.845,7.324,6.845z M14.758,8.755
				c-0.03-0.922-0.256-1.783-0.879-2.5c-0.89-1.027-2.218-1.055-3.154-0.074c-1.241,1.299-1.247,3.83-0.011,5.137
				c0.949,1.002,2.299,0.965,3.19-0.094C14.505,10.513,14.726,9.671,14.758,8.755z"/>
		</g>
		<g>
			<path fill-rule="evenodd" clip-rule="evenodd" fill="#42549A" d="M24.51,6.849c0-2.078-0.001-4.158,0-6.238
				c0-0.512,0.103-0.609,0.619-0.611c0.509,0,1.017,0,1.524,0.002c0.404,0,0.547,0.141,0.549,0.551
				c0.003,1.146,0.002,2.293,0.002,3.439c0,0.082-0.021,0.176,0.008,0.248c0.044,0.111,0.101,0.252,0.194,0.301
				c0.069,0.039,0.229-0.018,0.309-0.082c0.544-0.447,1.14-0.787,1.841-0.91c1.418-0.25,2.641,0.178,3.577,1.234
				c1.618,1.828,1.854,3.936,1.032,6.184c-0.182,0.496-0.445,0.975-0.74,1.418c-0.678,1.021-1.689,1.475-2.883,1.574
				c-1.059,0.086-2.006-0.199-2.86-0.832c-0.392-0.291-0.522-0.238-0.653,0.225c-0.074,0.264-0.239,0.381-0.505,0.381
				c-0.499-0.002-0.999,0.002-1.497-0.004c-0.367-0.002-0.514-0.152-0.514-0.527c-0.002-2.117,0-4.234,0-6.352
				C24.511,6.849,24.51,6.849,24.51,6.849z M26.965,8.722c-0.021,0.812,0.245,1.689,0.699,2.322c0.942,1.303,2.521,1.338,3.51,0.072
				c1.03-1.318,1-3.527-0.063-4.803c-0.947-1.131-2.375-1.137-3.318-0.006C27.212,7.007,26.985,7.829,26.965,8.722z"/>
		</g>
		<g>
			<path fill-rule="evenodd" clip-rule="evenodd" fill="#42549A" d="M22.272,9.29c0,1.588,0.005,3.178-0.003,4.768
				c-0.001,0.359-0.013,0.723-0.07,1.076c-0.171,1.041-0.907,1.766-1.976,1.918c-0.546,0.076-1.102,0.1-1.654,0.117
				c-0.441,0.016-0.594-0.154-0.599-0.598c-0.005-0.369-0.013-0.738-0.001-1.109c0.009-0.334,0.103-0.41,0.431-0.445
				c0.183-0.018,0.369-0.047,0.54-0.107c0.398-0.139,0.6-0.439,0.6-0.863c0.001-3.195,0.001-6.393,0.001-9.588
				c0-0.084-0.004-0.168,0-0.25c0.022-0.33,0.178-0.484,0.513-0.486c0.553-0.006,1.107-0.002,1.661-0.002
				c0.399,0.002,0.556,0.154,0.557,0.553C22.274,5.946,22.272,7.618,22.272,9.29z"/>
		</g>
		<g>
			<path fill-rule="evenodd" clip-rule="evenodd" fill="#42549A" d="M19.573,1.407c0.004-0.762,0.552-1.301,1.318-1.295
				c0.737,0.006,1.279,0.566,1.273,1.314c-0.007,0.754-0.559,1.277-1.344,1.273C20.09,2.696,19.569,2.157,19.573,1.407z"/>
		</g>
	</g>
</g>
</svg>
